
   _____                         _                              __  __
  / ____|                       (_)                            |  \/  |
 | (___     ___   _ __  __   __  _    ___    ___     ______    | \  / |   __ _   _ __     __ _    __ _    ___   _ __
  \___ \   / _ \ | '__| \ \ / / | |  / __|  / _ \   |______|   | |\/| |  / _` | | '_ \   / _` |  / _` |  / _ \ | '__|
  ____) | |  __/ | |     \ V /  | | | (__  |  __/              | |  | | | (_| | | | | | | (_| | | (_| | |  __/ | |
 |_____/   \___| |_|      \_/   |_|  \___|  \___|              |_|  |_|  \__,_| |_| |_|  \__,_|  \__, |  \___| |_|
                                                                                                  __/ |
                                                                                                 |___/


 :: Spring Boot ::        ${spring-boot.version}