    ____          __              _____ _      __
   /  _/___  ____/ /________ _   / ___/(_)____/ /____  ____ ___  ____ ______   
   / // __ \/ __  / ___/ __ `/   \__ \/ / ___/ __/ _ \/ __ `__ \/ __ `/ ___/
 _/ // / / / /_/ / /  / /_/ /   ___/ / (__  ) /_/  __/ / / / / / /_/ (__  )
/___/_/ /_/\__,_/_/   \__,_/   /____/_/____/\__/\___/_/ /_/ /_/\__,_/____/    



 ______                                __
/_  __/______ ____  ___ ___  ___  ____/ /____
 / / / __/ _ `/ _ \(_-</ _ \/ _ \/ __/ __/ -_)
/_/ /_/  \_,_/_//_/___/ .__/\___/_/  \__/\__/
                     /_/
	   ____                     _          _
	  / __/__ ___________ _  __(_)__ _____(_)__
	 / _// -_) __/ __/ _ \ |/ / / _ `/ __/ / _ \
	/_/  \__/_/ /_/  \___/___/_/\_,_/_/ /_/\___/


                                                                                         
 :: Spring Boot ::        ${spring-boot.version}
